…
load_nsduh_data(html = nsduh_html, table_number = 1, outcome_name = "marj")
```

    ## # A tibble: 510 × 5
    ##    State   age   year      percent outcome
    ##    <chr>   <chr> <chr>       <dbl> <chr>  
    ##  1 Alabama 12+   2013-2014    9.98 marj   
    ##  2 Alabama 12+   2014-2015    9.6  marj   
    ##  3 Alabama 12-17 2013-2014    9.9  marj   
    ##  4 Alabama 12-17 2014-2015    9.71 marj   
    ##  5 Alabama 18-25 2013-2014   27.0  marj   
    ##  6 Alabama 18-25 2014-2015   26.1  marj   
    ##  7 Alabama 26+   2013-2014    7.1  marj   
    ##  8 Alabama 26+   2014-2015    6.81 marj   
    ##  9 Alabama 18+   2013-2014    9.99 marj   
    ## 10 Alabama 18+   2014-2015    9.59 marj   
    ## # ℹ 500 more rows

``` r
load_nsduh_data(html = nsduh_html, table_number = 4, outcome_name = "cocaine")
```

    ## # A tibble: 510 × 5
    ##    State   age   year      percent outcome
    ##    <chr>   <chr> <chr>       <dbl> <chr>  
    ##  1 Alabama 12+   2013-2014    1.23 cocaine
    ##  2 Alabama 12+   2014-2015    1.22 cocaine
    ##  3 Alabama 12-17 2013-2014    0.42 cocaine
    ##  4 Alabama 12-17 2014-2015    0.41 cocaine
    ##  5 Alabama 18-25 2013-2014    3.09 cocaine
    ##  6 Alabama 18-25 2014-2015    3.2  cocaine
    ##  7 Alabama 26+   2013-2014    1.01 cocaine
    ##  8 Alabama 26+   2014-2015    0.99 cocaine
    ##  9 Alabama 18+   2013-2014    1.31 cocaine
    ## 10 Alabama 18+   2014-2015    1.31 cocaine
    ## # ℹ 500 more rows
…
for (i in 1:3) {
  
  output[[i]] = load_nsduh_data(nsduh_html, input_tables[[i]], input_names[[i]])
    
}

nsduh_df = bind_rows(output)

nsduh_df
```

    ## # A tibble: 1,530 × 5
    ##    State   age   year      percent outcome
    ##    <chr>   <chr> <chr>       <dbl> <chr>  
    ##  1 Alabama 12+   2013-2014    9.98 marj   
    ##  2 Alabama 12+   2014-2015    9.6  marj   
    ##  3 Alabama 12-17 2013-2014    9.9  marj   
    ##  4 Alabama 12-17 2014-2015    9.71 marj   
    ##  5 Alabama 18-25 2013-2014   27.0  marj   
    ##  6 Alabama 18-25 2014-2015   26.1  marj   
    ##  7 Alabama 26+   2013-2014    7.1  marj   
    ##  8 Alabama 26+   2014-2015    6.81 marj   
    ##  9 Alabama 18+   2013-2014    9.99 marj   
    ## 10 Alabama 18+   2014-2015    9.59 marj   
    ## # ℹ 1,520 more rows
…
nsduh_df = 
  tibble(
    name = c("marj", "cocaine", "heroin"),
    number = c(1, 4, 5)
  ) |> 
  mutate(table = map(number, load_nsduh_data, html = nsduh_html)) |> 
  filter(name == "marj") |> 
  unnest(table)

nsduh_df
```

    ## # A tibble: 510 × 6
    ##    name  number State   age   year      percent
    ##    <chr>  <dbl> <chr>   <chr> <chr>       <dbl>
    ##  1 marj       1 Alabama 12+   2013-2014    9.98
    ##  2 marj       1 Alabama 12+   2014-2015    9.6 
    ##  3 marj       1 Alabama 12-17 2013-2014    9.9 
    ##  4 marj       1 Alabama 12-17 2014-2015    9.71
    ##  5 marj       1 Alabama 18-25 2013-2014   27.0 
    ##  6 marj       1 Alabama 18-25 2014-2015   26.1 
    ##  7 marj       1 Alabama 26+   2013-2014    7.1 
    ##  8 marj       1 Alabama 26+   2014-2015    6.81
    ##  9 marj       1 Alabama 18+   2013-2014    9.99
    ## 10 marj       1 Alabama 18+   2014-2015    9.59
    ## # ℹ 500 more rows
…
``` r
input_list = weather_nest_df |> pull(df)
output = vector("list", length = 3)

for (i in 1:3) {
  output[[i]] = weather_lm(input_list[[i]])
}

weather_nest_df |> 
  mutate(models = map(df, weather_lm)) |> 
  unnest(df)
```

    ## # A tibble: 2,190 × 7
    ##    name           id          date        prcp  tmax  tmin models
    ##    <chr>          <chr>       <date>     <dbl> <dbl> <dbl> <list>
    ##  1 CentralPark_NY USW00094728 2021-01-01   157   4.4   0.6 <lm>  
    ##  2 CentralPark_NY USW00094728 2021-01-02    13  10.6   2.2 <lm>  
    ##  3 CentralPark_NY USW00094728 2021-01-03    56   3.3   1.1 <lm>  
    ##  4 CentralPark_NY USW00094728 2021-01-04     5   6.1   1.7 <lm>  
    ##  5 CentralPark_NY USW00094728 2021-01-05     0   5.6   2.2 <lm>  
    ##  6 CentralPark_NY USW00094728 2021-01-06     0   5     1.1 <lm>  
    ##  7 CentralPark_NY USW00094728 2021-01-07     0   5    -1   <lm>  
    ##  8 CentralPark_NY USW00094728 2021-01-08     0   2.8  -2.7 <lm>  
    ##  9 CentralPark_NY USW00094728 2021-01-09     0   2.8  -4.3 <lm>  
    ## 10 CentralPark_NY USW00094728 2021-01-10     0   5    -1.6 <lm>  
    ## # ℹ 2,180 more rows
